{
  "hits": [
    {
      "rid": "wikididyoumean",
      "score": 3
    },
    {
      "rid": "wikifull1",
      "score": 2.2
    },
    {
      "rid": "wikiimage",
      "score": 2
    },
    {
      "rid": "wikismall2",
      "score": 1.7
    },
    {
      "rid": "wikifull2",
      "score": 1.5
    },
    {
      "rid": "wikismall1",
      "score": 0.9
    },
    {
      "rid": "wikirelated",
      "score": 0.5
    }
  ],
  "resource": {
    "id": "index",
    "mimetype": "application\/searsia+json",
    "urltemplate": "https:\/\/searsia.org\/resultsdemo.html",
    "favicon": "https:\/\/searsia.org\/images\/searsia.png",
    "banner": "https:\/\/searsia.org\/images\/banner.png",
    "testquery": "informat",
    "name": "Wikipedia Demo",
    "prior": 3,
    "apitemplate": "https:\/\/searsia.org\/searsia\/wiki\/index{q}.json"
  },
  "searsia": "v1.0.0"
}
